[
    { "name": "Gyártás" },
    { "name": "Diákmunka" },
    { "name": "IT" },
    { "name": "Mérnök" },
    { "name": "Szakmunka" },
    { "name": "Pénzügy" },
    { "name": "Értékesítés" },
    { "name": "Építés" },
    { "name": "Beszerzés" },
    { "name": "Energetika" }
]