[
    {
        "username": "admin",
        "email": "admin@admin.com",
        "password": "admin",
        "status": 1
    },
    {
        "username": "casper",
        "email": "example@gmail.com",
        "password": "msfFru",
        "status": 2
    },
    {
        "username": "minnie",
        "email": "e.xample@gmail.com",
        "password": "THGW6e",
        "status": 2
    },
    {
        "username": "chloe",
        "email": "e.x.ample@gmail.com",
        "password": "esrssK",
        "status": 2
    },
    {
        "username": "batman",
        "email": "e.x.a.mple@gmail.com",
        "password": "CNbuGa",
        "status": 2
    },
    {
        "username": "boots",
        "email": "e.x.a.m.ple@gmail.com",
        "password": "w9wtqf",
        "status": 2
    },
    {
        "username": "blacky",
        "email": "e.x.a.m.p.le@gmail.com",
        "password": "zVDC4R",
        "status": 2
    },
    {
        "username": "tucker",
        "email": "e.x.a.m.p.l.e@gmail.com",
        "password": "MweaNM",
        "status": 2
    },
    {
        "username": "patches",
        "email": "e.x.a.m.pl.e@gmail.com",
        "password": "DUva6j",
        "status": 2
    },
    {
        "username": "whiskers",
        "email": "e.x.a.mp.le@gmail.com",
        "password": "AdEKRM",
        "status": 2
    },
    {
        "username": "tomcat",
        "email": "e.x.a.mp.l.e@gmail.com",
        "password": "A8CbUJ",
        "status": 2
    },
    {
        "username": "frankie",
        "email": "e.x.a.mpl.e@gmail.com",
        "password": "rFQU7P",
        "status": 2
    },
    {
        "username": "phoebe",
        "email": "e.x.am.ple@gmail.com",
        "password": "6C4vka",
        "status": 2
    },
    {
        "username": "eve",
        "email": "e.x.am.p.le@gmail.com",
        "password": "qCxqy9",
        "status": 2
    },
    {
        "username": "cleo",
        "email": "e.x.am.p.l.e@gmail.com",
        "password": "ytguCk",
        "status": 2
    },
    {
        "username": "samantha",
        "email": "e.x.am.pl.e@gmail.com",
        "password": "fcSUDP",
        "status": 2
    },
    {
        "username": "grisou",
        "email": "e.x.amp.le@gmail.com",
        "password": "gnGNm8",
        "status": 2
    },
    {
        "username": "alfie",
        "email": "e.x.amp.l.e@gmail.com",
        "password": "8d3n5H",
        "status": 2
    },
    {
        "username": "george",
        "email": "e.x.ampl.e@gmail.com",
        "password": "UNfQu6",
        "status": 2
    },
    {
        "username": "gilbert",
        "email": "e.xa.mple@gmail.com",
        "password": "CpXHsp",
        "status": 2
    },
    {
        "username": "lolcat",
        "email": "e.xa.m.ple@gmail.com",
        "password": "hpATDH",
        "status": 2
    },
    {
        "username": "tiger",
        "email": "e.xa.m.p.le@gmail.com",
        "password": "kQ9E7L",
        "status": 2
    },
    {
        "username": "bella",
        "email": "e.xa.m.p.l.e@gmail.com",
        "password": "fPvxda",
        "status": 2
    },
    {
        "username": "puss",
        "email": "e.xa.m.pl.e@gmail.com",
        "password": "LSmcwn",
        "status": 2
    },
    {
        "username": "marie",
        "email": "e.xa.mp.le@gmail.com",
        "password": "sjeNwV",
        "status": 2
    },
    {
        "username": "precious",
        "email": "e.xa.mp.l.e@gmail.com",
        "password": "7NpsYg",
        "status": 2
    },
    {
        "username": "cali",
        "email": "e.xa.mpl.e@gmail.com",
        "password": "CNDsSP",
        "status": 2
    },
    {
        "username": "marley",
        "email": "e.xam.ple@gmail.com",
        "password": "mtrhHP",
        "status": 2
    },
    {
        "username": "ziggy",
        "email": "e.xam.p.le@gmail.com",
        "password": "st7LyP",
        "status": 2
    },
    {
        "username": "pepper",
        "email": "e.xam.p.l.e@gmail.com",
        "password": "7uH8vu",
        "status": 2
    },
    {
        "username": "mimi",
        "email": "e.xam.pl.e@gmail.com",
        "password": "7957wL",
        "status": 2
    },
    {
        "username": "scooter",
        "email": "e.xamp.le@gmail.com",
        "password": "trPx2c",
        "status": 2
    },
    {
        "username": "milo",
        "email": "e.xamp.l.e@gmail.com",
        "password": "2wCc5L",
        "status": 2
    },
    {
        "username": "chanel",
        "email": "e.xampl.e@gmail.com",
        "password": "B3X5wm",
        "status": 2
    },
    {
        "username": "stevens",
        "email": "ex.ample@gmail.com",
        "password": "GfqtgC",
        "status": 2
    },
    {
        "username": "ginger",
        "email": "ex.a.mple@gmail.com",
        "password": "JTkKTh",
        "status": 2
    },
    {
        "username": "sooty",
        "email": "ex.a.m.ple@gmail.com",
        "password": "6za8Wj",
        "status": 2
    },
    {
        "username": "minka",
        "email": "ex.a.m.p.le@gmail.com",
        "password": "YPugyz",
        "status": 2
    },
    {
        "username": "charly",
        "email": "ex.a.m.p.l.e@gmail.com",
        "password": "Fj2W6x",
        "status": 2
    },
    {
        "username": "murphy",
        "email": "ex.a.m.pl.e@gmail.com",
        "password": "V7PmxQ",
        "status": 2
    },
    {
        "username": "lily",
        "email": "ex.a.mp.le@gmail.com",
        "password": "Yk4Vqk",
        "status": 2
    },
    {
        "username": "angel",
        "email": "ex.a.mp.l.e@gmail.com",
        "password": "qr8zs7",
        "status": 2
    },
    {
        "username": "callie",
        "email": "ex.a.mpl.e@gmail.com",
        "password": "vhtfyL",
        "status": 2
    },
    {
        "username": "harley",
        "email": "ex.am.ple@gmail.com",
        "password": "r5fc2r",
        "status": 2
    },
    {
        "username": "charlie",
        "email": "ex.am.p.le@gmail.com",
        "password": "rKEb2v",
        "status": 2
    },
    {
        "username": "cat",
        "email": "ex.am.p.l.e@gmail.com",
        "password": "ATjMZW",
        "status": 2
    },
    {
        "username": "millie",
        "email": "ex.am.pl.e@gmail.com",
        "password": "eagmhU",
        "status": 2
    },
    {
        "username": "napoleon",
        "email": "ex.amp.le@gmail.com",
        "password": "Htz3VB",
        "status": 2
    },
    {
        "username": "simba",
        "email": "ex.amp.l.e@gmail.com",
        "password": "QbB5zb",
        "status": 2
    },
    {
        "username": "pebbles",
        "email": "ex.ampl.e@gmail.com",
        "password": "kJXwQJ",
        "status": 2
    },
    {
        "username": "diana",
        "email": "exa.mple@gmail.com",
        "password": "QBwMnP",
        "status": 2
    },
    {
        "username": "shadow",
        "email": "exa.m.ple@gmail.com",
        "password": "auVkD9",
        "status": 2
    },
    {
        "username": "susi",
        "email": "exa.m.p.le@gmail.com",
        "password": "awjCgm",
        "status": 2
    },
    {
        "username": "sasha",
        "email": "exa.m.p.l.e@gmail.com",
        "password": "evv3nm",
        "status": 2
    },
    {
        "username": "misty",
        "email": "exa.m.pl.e@gmail.com",
        "password": "PsTfUY",
        "status": 2
    },
    {
        "username": "duchess",
        "email": "exa.mp.le@gmail.com",
        "password": "3fh8rz",
        "status": 2
    },
    {
        "username": "sammy",
        "email": "exa.mp.l.e@gmail.com",
        "password": "mEdJdv",
        "status": 2
    },
    {
        "username": "sophie",
        "email": "exa.mpl.e@gmail.com",
        "password": "tksBp6",
        "status": 2
    },
    {
        "username": "chester",
        "email": "exam.ple@gmail.com",
        "password": "Vt6VH4",
        "status": 2
    },
    {
        "username": "patch",
        "email": "exam.p.le@gmail.com",
        "password": "Qtw4yu",
        "status": 2
    },
    {
        "username": "roquefort",
        "email": "exam.p.l.e@gmail.com",
        "password": "pzFwGm",
        "status": 2
    },
    {
        "username": "snickers",
        "email": "exam.pl.e@gmail.com",
        "password": "bbqREc",
        "status": 2
    },
    {
        "username": "dexter",
        "email": "examp.le@gmail.com",
        "password": "8WW6pB",
        "status": 2
    },
    {
        "username": "minette",
        "email": "examp.l.e@gmail.com",
        "password": "qes9qZ",
        "status": 2
    },
    {
        "username": "lucy",
        "email": "exampl.e@gmail.com",
        "password": "dPTL8N",
        "status": 2
    },
    {
        "username": "tigger",
        "email": "sample@gmail.com",
        "password": "nzUdRs",
        "status": 2
    },
    {
        "username": "mew",
        "email": "s.ample@gmail.com",
        "password": "82jwsV",
        "status": 2
    },
    {
        "username": "sebastian",
        "email": "s.a.mple@gmail.com",
        "password": "f6rQvz",
        "status": 2
    },
    {
        "username": "coco",
        "email": "s.a.m.ple@gmail.com",
        "password": "8CbDFS",
        "status": 2
    },
    {
        "username": "kitty",
        "email": "s.a.m.p.le@gmail.com",
        "password": "HJ2nxx",
        "status": 2
    },
    {
        "username": "minou",
        "email": "s.a.m.p.l.e@gmail.com",
        "password": "CwpNbA",
        "status": 2
    },
    {
        "username": "sam",
        "email": "s.a.m.pl.e@gmail.com",
        "password": "trvgWv",
        "status": 2
    },
    {
        "username": "jiji",
        "email": "s.a.mp.le@gmail.com",
        "password": "9Geeak",
        "status": 2
    },
    {
        "username": "maru",
        "email": "s.a.mp.l.e@gmail.com",
        "password": "pZGabc",
        "status": 2
    },
    {
        "username": "pumpkin",
        "email": "s.a.mpl.e@gmail.com",
        "password": "mqpjhG",
        "status": 2
    },
    {
        "username": "sylvester",
        "email": "sam.p.le@gmail.com",
        "password": "p4N6hU",
        "status": 2
    }
]